INDEX VERSION 1.131+C:\Users\kawashima.mayumi\eclipse\hukubiki\.metadata\.plugins\org.eclipse.jdt.core
2258590402.index
3507728844.index
216070722.index
4248595522.index
2066119401.index
1181561897.index
4237235508.index
2139406233.index
3292725035.index
2371065934.index
3219581484.index
880492686.index
3223209329.index
4190888846.index
2730686915.index
3022316771.index
2190155610.index
2289477268.index
1379744260.index
2358923293.index
3778746985.index
3024605594.index
538035871.index
3071904489.index
2809288736.index
1148464110.index
1617375202.index
2953810343.index
2344098464.index
844575332.index
2720960044.index
706410436.index
2105121072.index
1606618164.index
1028263179.index
270511069.index
1380389475.index
1384869147.index
1199858029.index
2722732484.index
1119226167.index
2985479779.index
1163699711.index
1697845267.index
1497752678.index
582714170.index
4131551597.index
1183371321.index
1053649936.index
342256569.index
1319170131.index
2136845167.index
1624619978.index
2093109520.index
3676985712.index
2567701647.index
175865013.index
4097055592.index
1546882587.index
3627068953.index
4169062111.index
